Timestamp	Speaker's name	Content of the talk (please select one, where 5 - outstanding and 1 - unsatisfactory) [Background]	Content of the talk (please select one, where 5 - outstanding and 1 - unsatisfactory) [Hypotheses/Experimental Design]	Content of the talk (please select one, where 5 - outstanding and 1 - unsatisfactory) [Implications of the study + conclusion]	Open feedback on the content of the talk	Presentation style and skills (please select one, where 5 - outstanding and 1 - unsatisfactory) [Consistency of the story]	Presentation style and skills (please select one, where 5 - outstanding and 1 - unsatisfactory) [Clarity of the slides]	Presentation style and skills (please select one, where 5 - outstanding and 1 - unsatisfactory) [Quality of the images/figures]	Presentation style and skills (please select one, where 5 - outstanding and 1 - unsatisfactory) [Visualization of the data]	Presentation style and skills (please select one, where 5 - outstanding and 1 - unsatisfactory) [Verbal expression]	Presentation style and skills (please select one, where 5 - outstanding and 1 - unsatisfactory) [Manners/Gestures]	Presentation style and skills (please select one, where 5 - outstanding and 1 - unsatisfactory) [Answering of the questions]	Open feedback on the presentation skills	Email address
13/09/2022 14:28:29	Name Nameson	5	4	3	It was nicely summarized with not too many details, thus everyone could follow.	5	5	5	5	5	4	5		
13/09/2022 14:28:29	Name Nameson	3	4	5	-	5	5	5	5	4	4	5	-	
13/09/2022 14:28:29	Name Nameson	5	5	5		5	3	5	5	5	4	5	Maybe a few figures could have had legends, so it was clear what the colors mean.	
13/09/2022 14:28:29	Name Nameson	3	4	5	-	5	5	5	5	4	4	5	-	
